{

  "apiVersion": "1.0.5",
  "swaggerVersion": "1.2",
  "apis": [
    {
      "path": "/a0sso/",
      "description": "0. SSO"
    },
    {
      "path": "/a1common/",
      "description": "1. Common API"
    },
    {
      "path": "/a2qm/",
      "description": "2. iClinic QM API"
    },
    {
      "path": "/a3caregap/",
      "description": "3. Care Gap API"
    }
  ]
}
